spi.vcd
$date
	Wed Oct 17 10:35:24 2018
$end
$version
	Icarus Verilog
$end
$timescale
	1ps
$end
$scope module spi_test $end
$scope module dut $end
$var wire 1 ! clk $end
$var wire 1 " cs_pin $end
$var wire 4 # leds [3:0] $end
$var wire 1 $ mosi_pin $end
$var wire 1 % sclk_pin $end
$var wire 8 & shiftRegOutP [7:0] $end
$var wire 1 ' serialDataOut $end
$var wire 1 ( sclk_rising $end
$var wire 1 ) sclk_falling $end
$var wire 1 * sclk_conditioned $end
$var wire 1 + mosi_rising $end
$var wire 1 , mosi_falling $end
$var wire 1 - mosi_conditioned $end
$var wire 1 . miso_pin $end
$var wire 1 / dff_out $end
$var wire 8 0 dataMemOut [7:0] $end
$var wire 1 1 cs_rising $end
$var wire 1 2 cs_falling $end
$var wire 1 3 cs_conditioned $end
$var wire 7 4 address [6:0] $end
$var wire 1 5 SR_WE $end
$var wire 1 6 MISO_EN $end
$var wire 1 7 MISO_BUF $end
$var wire 1 8 DM_WE $end
$var wire 1 9 ADDR_WE $end
$scope module addrLtch $end
$var wire 1 ! clk $end
$var wire 1 9 wrenable $end
$var wire 8 : data [7:0] $end
$var reg 7 ; address [6:0] $end
$upscope $end
$scope module cs_inputcond $end
$var wire 1 ! clk $end
$var wire 1 " noisysignal $end
$var reg 1 3 conditioned $end
$var reg 3 < counter [2:0] $end
$var reg 1 2 negativeedge $end
$var reg 1 = negedgecounter $end
$var reg 1 > posedgecounter $end
$var reg 1 1 positiveedge $end
$var reg 1 ? synchronizer0 $end
$var reg 1 @ synchronizer1 $end
$upscope $end
$scope module dflipf $end
$var wire 1 ! clk $end
$var wire 1 ) wrenable $end
$var wire 1 ' d $end
$var reg 1 / q $end
$upscope $end
$scope module dm $end
$var wire 7 A address [6:0] $end
$var wire 1 ! clk $end
$var wire 1 8 writeEnable $end
$var wire 8 B dataIn [7:0] $end
$var reg 8 C dataOut [7:0] $end
$upscope $end
$scope module finitestate $end
$var wire 1 ! clk $end
$var wire 1 3 cs $end
$var wire 1 ( positiveedge_sclk $end
$var wire 1 ) negativeedge_sclk $end
$var wire 1 - mosi $end
$var reg 1 9 ADDR_WE $end
$var reg 1 8 DM_WE $end
$var reg 1 7 MISO_BUF $end
$var reg 1 6 MISO_EN $end
$var reg 1 5 SR_WE $end
$var reg 5 D state [4:0] $end
$upscope $end
$scope module mosi_inputcond $end
$var wire 1 ! clk $end
$var wire 1 $ noisysignal $end
$var reg 1 - conditioned $end
$var reg 3 E counter [2:0] $end
$var reg 1 , negativeedge $end
$var reg 1 F negedgecounter $end
$var reg 1 G posedgecounter $end
$var reg 1 + positiveedge $end
$var reg 1 H synchronizer0 $end
$var reg 1 I synchronizer1 $end
$upscope $end
$scope module sclk_inputcond $end
$var wire 1 ! clk $end
$var wire 1 % noisysignal $end
$var reg 1 * conditioned $end
$var reg 3 J counter [2:0] $end
$var reg 1 ) negativeedge $end
$var reg 1 K negedgecounter $end
$var reg 1 L posedgecounter $end
$var reg 1 ( positiveedge $end
$var reg 1 M synchronizer0 $end
$var reg 1 N synchronizer1 $end
$upscope $end
$scope module shiftreg $end
$var wire 1 ! clk $end
$var wire 8 O parallelDataIn [7:0] $end
$var wire 1 5 parallelLoad $end
$var wire 1 ( peripheralClkEdge $end
$var wire 1 - serialDataIn $end
$var reg 8 P parallelDataOut [7:0] $end
$var reg 1 ' serialDataOut $end
$var reg 8 Q shiftregistermem [7:0] $end
$upscope $end
$scope module tsb $end
$var wire 1 / a $end
$var wire 1 . b $end
$var wire 1 7 enable $end
$var wire 1 6 is_zero $end
$upscope $end
$upscope $end
$upscope $end
$enddefinitions $end
#0
$dumpvars
b0 Q
bx P
b0 O
0N
0M
0L
0K
b0 J
0I
0H
0G
0F
b0 E
bx D
b0 C
bx B
b0 A
0@
0?
0>
0=
b0 <
b0 ;
bx :
x9
x8
x7
x6
x5
b0 4
x3
x2
x1
b0 0
x/
x.
x-
x,
x+
x*
x)
x(
x'
bx &
0%
x$
bz #
1"
0!
$end
#10000
xH
b1 E
b1 J
1?
b1 <
b0 &
b0 :
b0 B
b0 P
0'
bx 0
bx C
bx O
1!
#20000
0!
#30000
1@
b10 <
b10 J
xI
b10 E
1!
#40000
0!
#50000
b11 E
b11 J
0?
b11 <
1!
0"
#60000
0!
#70000
0@
13
b100 <
0*
b100 J
b100 E
1!
#80000
0!
#90000
0.
06
05
08
09
07
b101 E
b0 J
b101 <
b0 D
1!
#100000
0!
1%
#110000
b110 <
1M
b110 E
1!
#120000
0!
#130000
b111 E
1N
b111 <
1!
#140000
0!
#150000
b0 <
b1 J
b0 E
1!
#160000
0!
#170000
b1 E
b10 J
b1 <
1!
#180000
0!
#190000
b10 <
b11 J
b10 E
1!
#200000
0!
0%
1$
#210000
1H
b11 E
0M
1L
1(
1*
b100 J
b11 <
1!
#220000
0!
#230000
b0x Q
1=
12
03
b100 <
0N
b0 J
0L
0(
1I
b100 E
1!
#240000
0!
#250000
17
b101 E
b1 J
b0 <
0=
02
b1 D
b0x &
b0x :
b0x B
b0x P
1!
#260000
0!
#270000
b10 J
b110 E
1!
#280000
0!
#290000
b111 E
b11 J
1!
#300000
0!
1%
#310000
1M
1K
1)
0*
b100 J
b0 E
1!
#320000
0!
#330000
b1 E
1N
b0 J
0K
0)
0/
1!
#340000
0!
#350000
b1 J
b10 E
1!
#360000
0!
#370000
b11 E
b10 J
1!
#380000
0!
#390000
b11 J
1-
b100 E
1!
#400000
0!
0%
0$
#410000
0H
b0 E
0M
1L
1(
1*
b100 J
1!
#420000
0!
#430000
b0x1 Q
b10 D
0N
b0 J
0L
0(
0I
1!
#440000
0!
#450000
b1 E
b1 J
b0x1 &
b0x1 :
b0x1 B
b0x1 P
1!
#460000
0!
#470000
b10 J
b10 E
1!
#480000
0!
#490000
b11 E
b11 J
1!
#500000
0!
1%
#510000
1M
1K
1)
0*
b100 J
1F
1,
0-
b100 E
1!
#520000
0!
#530000
b0 E
0F
0,
1N
b0 J
0K
0)
1!
#540000
0!
#550000
b1 J
1!
#560000
0!
#570000
b10 J
1!
#580000
0!
#590000
b11 J
1!
#600000
0!
0%
#610000
0M
1L
1(
1*
b100 J
1!
#620000
0!
#630000
b0x10 Q
b11 D
0N
b0 J
0L
0(
1!
#640000
0!
#650000
b1 J
b0x10 &
b0x10 :
b0x10 B
b0x10 P
1!
#660000
0!
#670000
b10 J
1!
#680000
0!
#690000
b11 J
1!
#700000
0!
1%
#710000
1M
1K
1)
0*
b100 J
1!
#720000
0!
#730000
1N
b0 J
0K
0)
1!
#740000
0!
#750000
b1 J
1!
#760000
0!
#770000
b10 J
1!
#780000
0!
#790000
b11 J
1!
#800000
0!
0%
#810000
0M
1L
1(
1*
b100 J
1!
#820000
0!
#830000
b0x100 Q
b100 D
0N
b0 J
0L
0(
1!
#840000
0!
#850000
b1 J
b0x100 &
b0x100 :
b0x100 B
b0x100 P
1!
#860000
0!
#870000
b10 J
1!
#880000
0!
#890000
b11 J
1!
#900000
0!
1%
#910000
1M
1K
1)
0*
b100 J
1!
#920000
0!
#930000
1N
b0 J
0K
0)
1!
#940000
0!
#950000
b1 J
1!
#960000
0!
#970000
b10 J
1!
#980000
0!
#990000
b11 J
1!
#1000000
0!
0%
1$
#1010000
1H
0M
1L
1(
1*
b100 J
1!
#1020000
0!
#1030000
b0x1000 Q
b101 D
0N
b0 J
0L
0(
1I
1!
#1040000
0!
#1050000
b1 E
b1 J
b0x1000 &
b0x1000 :
b0x1000 B
b0x1000 P
1!
#1060000
0!
#1070000
b10 J
b10 E
1!
#1080000
0!
#1090000
b11 E
b11 J
1!
#1100000
0!
1%
#1110000
1M
1K
1)
0*
b100 J
1G
1+
1-
b100 E
1!
#1120000
0!
#1130000
b0 E
0G
0+
1N
b0 J
0K
0)
1!
#1140000
0!
#1150000
b1 J
1!
#1160000
0!
#1170000
b10 J
1!
#1180000
0!
#1190000
b11 J
1!
#1200000
0!
0%
0$
#1210000
0H
0M
1L
1(
1*
b100 J
1!
#1220000
0!
#1230000
b0x10001 Q
b110 D
0N
b0 J
0L
0(
0I
1!
#1240000
0!
#1250000
b1 E
b1 J
b0x10001 &
b0x10001 :
b0x10001 B
b0x10001 P
1!
#1260000
0!
#1270000
b10 J
b10 E
1!
#1280000
0!
#1290000
b11 E
b11 J
1!
#1300000
0!
1%
#1310000
1M
1K
1)
0*
b100 J
1F
1,
0-
b100 E
1!
#1320000
0!
#1330000
b0 E
0F
0,
1N
b0 J
0K
0)
1!
#1340000
0!
#1350000
b1 J
1!
#1360000
0!
#1370000
b10 J
1!
#1380000
0!
#1390000
b11 J
1!
#1400000
0!
0%
#1410000
0M
1L
1(
1*
b100 J
1!
#1420000
0!
#1430000
b0x100010 Q
b111 D
0N
b0 J
0L
0(
1!
#1440000
0!
#1450000
b1 J
b0x100010 &
b0x100010 :
b0x100010 B
b0x100010 P
1!
#1460000
0!
#1470000
b10 J
1!
#1480000
0!
#1490000
b11 J
1!
#1500000
0!
1%
#1510000
1M
1K
1)
0*
b100 J
1!
#1520000
0!
#1530000
1N
b0 J
0K
0)
1!
#1540000
0!
#1550000
b1 J
1!
#1560000
0!
#1570000
b10 J
1!
#1580000
0!
#1590000
b11 J
1!
#1600000
0!
0%
#1610000
0M
1L
1(
1*
b100 J
1!
#1620000
0!
#1630000
19
bx1000100 Q
b1000 D
0N
b0 J
0L
0(
1!
#1640000
0!
#1650000
b1 J
bx1000100 &
bx1000100 :
bx1000100 B
bx1000100 P
x'
bx100010 4
bx100010 ;
bx100010 A
1!
#1660000
0!
#1670000
b1000100 4
b1000100 ;
b1000100 A
b10 J
1!
#1680000
0!
#1690000
b11 J
1!
#1700000
0!
1%
#1710000
1M
1K
1)
0*
b100 J
1!
#1720000
0!
#1730000
09
1N
b0 J
0K
0)
b10100 D
x/
1!
#1740000
0!
#1750000
b1 J
1!
#1760000
0!
#1770000
b10 J
1!
#1780000
0!
#1790000
b11 J
1!
#1800000
0!
0%
1$
#1810000
1H
0M
1L
1(
1*
b100 J
1!
#1820000
0!
#1830000
b10001000 Q
b10101 D
0N
b0 J
0L
0(
1I
1!
#1840000
0!
#1850000
b1 E
b1 J
b10001000 &
b10001000 :
b10001000 B
b10001000 P
1'
1!
#1860000
0!
#1870000
b10 J
b10 E
1!
#1880000
0!
#1890000
b11 E
b11 J
1!
#1900000
0!
1%
#1910000
1M
1K
1)
0*
b100 J
1G
1+
1-
b100 E
1!
#1920000
0!
#1930000
b0 E
0G
0+
1N
b0 J
0K
0)
1/
1!
#1940000
0!
#1950000
b1 J
1!
#1960000
0!
#1970000
b10 J
1!
#1980000
0!
#1990000
b11 J
1!
#2000000
0!
0%
0$
#2010000
0H
0M
1L
1(
1*
b100 J
1!
#2020000
0!
#2030000
b10001 Q
b10110 D
0N
b0 J
0L
0(
0I
1!
#2040000
0!
#2050000
b1 E
b1 J
b10001 &
b10001 :
b10001 B
b10001 P
0'
1!
#2060000
0!
#2070000
b10 J
b10 E
1!
#2080000
0!
#2090000
b11 E
b11 J
1!
#2100000
0!
1%
#2110000
1M
1K
1)
0*
b100 J
1F
1,
0-
b100 E
1!
#2120000
0!
#2130000
b0 E
0F
0,
1N
b0 J
0K
0)
0/
1!
#2140000
0!
#2150000
b1 J
1!
#2160000
0!
#2170000
b10 J
1!
#2180000
0!
#2190000
b11 J
1!
#2200000
0!
0%
1$
#2210000
1H
0M
1L
1(
1*
b100 J
1!
#2220000
0!
#2230000
b100010 Q
b10111 D
0N
b0 J
0L
0(
1I
1!
#2240000
0!
#2250000
b1 E
b1 J
b100010 &
b100010 :
b100010 B
b100010 P
1!
#2260000
0!
#2270000
b10 J
b10 E
1!
#2280000
0!
#2290000
b11 E
b11 J
1!
#2300000
0!
1%
#2310000
1M
1K
1)
0*
b100 J
1G
1+
1-
b100 E
1!
#2320000
0!
#2330000
b0 E
0G
0+
1N
b0 J
0K
0)
1!
#2340000
0!
#2350000
b1 J
1!
#2360000
0!
#2370000
b10 J
1!
#2380000
0!
#2390000
b11 J
1!
#2400000
0!
0%
#2410000
0M
1L
1(
1*
b100 J
1!
#2420000
0!
#2430000
b1000101 Q
b11000 D
0N
b0 J
0L
0(
1!
#2440000
0!
#2450000
b1 J
b1000101 &
b1000101 :
b1000101 B
b1000101 P
1!
#2460000
0!
#2470000
b10 J
1!
#2480000
0!
#2490000
b11 J
1!
#2500000
0!
1%
#2510000
1M
1K
1)
0*
b100 J
1!
#2520000
0!
#2530000
1N
b0 J
0K
0)
1!
#2540000
0!
#2550000
b1 J
1!
#2560000
0!
#2570000
b10 J
1!
#2580000
0!
#2590000
b11 J
1!
#2600000
0!
0%
#2610000
0M
1L
1(
1*
b100 J
1!
#2620000
0!
#2630000
b10001011 Q
b11001 D
0N
b0 J
0L
0(
1!
#2640000
0!
#2650000
b1 J
b10001011 &
b10001011 :
b10001011 B
b10001011 P
1'
1!
#2660000
0!
#2670000
b10 J
1!
#2680000
0!
#2690000
b11 J
1!
#2700000
0!
1%
#2710000
1M
1K
1)
0*
b100 J
1!
#2720000
0!
#2730000
1N
b0 J
0K
0)
1/
1!
#2740000
0!
#2750000
b1 J
1!
#2760000
0!
#2770000
b10 J
1!
#2780000
0!
#2790000
b11 J
1!
#2800000
0!
0%
0$
#2810000
0H
0M
1L
1(
1*
b100 J
1!
#2820000
0!
#2830000
b10111 Q
b11010 D
0N
b0 J
0L
0(
0I
1!
#2840000
0!
#2850000
b1 E
b1 J
b10111 &
b10111 :
b10111 B
b10111 P
0'
1!
#2860000
0!
#2870000
b10 J
b10 E
1!
#2880000
0!
#2890000
b11 E
b11 J
1!
#2900000
0!
1%
#2910000
1M
1K
1)
0*
b100 J
1F
1,
0-
b100 E
1!
#2920000
0!
#2930000
b0 E
0F
0,
1N
b0 J
0K
0)
0/
1!
#2940000
0!
#2950000
b1 J
1!
#2960000
0!
#2970000
b10 J
1!
#2980000
0!
#2990000
b11 J
1!
#3000000
0!
0%
1$
#3010000
1H
0M
1L
1(
1*
b100 J
1!
#3020000
0!
#3030000
b101110 Q
b11011 D
0N
b0 J
0L
0(
1I
1!
#3040000
0!
#3050000
b1 E
b1 J
b101110 &
b101110 :
b101110 B
b101110 P
1!
#3060000
0!
#3070000
b10 J
b10 E
1!
#3080000
0!
#3090000
b11 E
b11 J
1!
#3100000
0!
1%
#3110000
1M
1K
1)
0*
b100 J
1G
1+
1-
b100 E
1!
#3120000
0!
#3130000
b0 E
0G
0+
1N
b0 J
0K
0)
1!
#3140000
0!
#3150000
b1 J
1!
#3160000
0!
#3170000
b10 J
1!
#3180000
0!
#3190000
b11 J
1!
#3200000
0!
0%
#3210000
0M
1L
1(
1*
b100 J
1!
#3220000
0!
#3230000
b1011101 Q
b11100 D
0N
b0 J
0L
0(
1!
#3240000
0!
#3250000
b1 J
b1011101 &
b1011101 :
b1011101 B
b1011101 P
1!
#3260000
0!
#3270000
b10 J
1!
#3280000
0!
#3290000
b11 J
1!
#3300000
0!
1%
#3310000
1M
1K
1)
0*
b100 J
1!
#3320000
0!
#3330000
1N
b0 J
0K
0)
1!
#3340000
0!
#3350000
b1 J
1!
#3360000
0!
#3370000
b10 J
1!
#3380000
0!
#3390000
b11 J
1!
#3400000
0!
0%
#3410000
0M
1L
1(
1*
b100 J
1!
#3420000
0!
#3430000
18
b10111011 Q
b11101 D
0N
b0 J
0L
0(
1!
#3440000
0!
#3450000
b1 J
b10111011 &
b10111011 :
b10111011 B
b10111011 P
1'
1!
#3460000
0!
#3470000
b1011101 0
b1011101 C
b1011101 O
b10 J
1!
#3480000
0!
#3490000
b11 J
b10111011 0
b10111011 C
b10111011 O
1!
#3500000
0!
1%
#3510000
1M
1K
1)
0*
b100 J
1!
#3520000
0!
#3530000
1N
b0 J
0K
0)
1/
1!
#3540000
0!
#3550000
b1 J
1!
#3560000
0!
#3570000
b10 J
1!
#3580000
0!
#3590000
b11 J
1!
#3600000
0!
0%
#3610000
0M
1L
1(
1*
b100 J
1!
#3620000
0!
#3630000
08
b1110111 Q
b10 D
0N
b0 J
0L
0(
1!
#3640000
0!
#3650000
b1 J
b1110111 &
b1110111 :
b1110111 B
b1110111 P
0'
1!
#3660000
0!
#3670000
b10 J
1!
#3680000
0!
#3690000
b11 J
1!
#3700000
0!
1%
#3710000
1M
1K
1)
0*
b100 J
1!
#3720000
0!
#3730000
1N
b0 J
0K
0)
0/
1!
#3740000
0!
#3750000
b1 J
1!
#3760000
0!
#3770000
b10 J
1!
#3780000
0!
#3790000
b11 J
1!
#3800000
0!
0%
#3810000
0M
1L
1(
1*
b100 J
1!
#3820000
0!
#3830000
b11101111 Q
b11 D
0N
b0 J
0L
0(
1!
#3840000
0!
#3850000
b1 J
b11101111 &
b11101111 :
b11101111 B
b11101111 P
1'
1!
#3860000
0!
#3870000
b10 J
1!
#3880000
0!
#3890000
b11 J
1!
#3900000
0!
1%
#3910000
1M
1K
1)
0*
b100 J
1!
#3920000
0!
#3930000
1N
b0 J
0K
0)
1/
1!
#3940000
0!
#3950000
b1 J
1!
#3960000
0!
#3970000
b10 J
1!
#3980000
0!
#3990000
b11 J
1!
#4000000
0!
0%
#4010000
0M
1L
1(
1*
b100 J
1!
#4020000
0!
#4030000
b11011111 Q
b100 D
0N
b0 J
0L
0(
1!
#4040000
0!
#4050000
b1 J
b11011111 &
b11011111 :
b11011111 B
b11011111 P
1!
#4060000
0!
#4070000
b10 J
1!
#4080000
0!
#4090000
b11 J
1!
#4100000
0!
1%
#4110000
1M
1K
1)
0*
b100 J
1!
#4120000
0!
#4130000
1N
b0 J
0K
0)
1!
#4140000
0!
#4150000
b1 J
1!
#4160000
0!
#4170000
b10 J
1!
#4180000
0!
#4190000
b11 J
1!
#4200000
0!
0%
#4210000
0M
1L
1(
1*
b100 J
1!
#4220000
0!
#4230000
b10111111 Q
b101 D
0N
b0 J
0L
0(
1!
#4240000
0!
#4250000
b1 J
b10111111 &
b10111111 :
b10111111 B
b10111111 P
1!
#4260000
0!
#4270000
b10 J
1!
#4280000
0!
#4290000
b11 J
1!
#4300000
0!
1%
#4310000
1M
1K
1)
0*
b100 J
1!
#4320000
0!
#4330000
1N
b0 J
0K
0)
1!
#4340000
0!
#4350000
b1 J
1!
#4360000
0!
#4370000
b10 J
1!
#4380000
0!
#4390000
b11 J
1!
#4400000
0!
0%
#4410000
0M
1L
1(
1*
b100 J
1!
#4420000
0!
#4430000
b1111111 Q
b110 D
0N
b0 J
0L
0(
1!
#4440000
0!
#4450000
b1 J
b1111111 &
b1111111 :
b1111111 B
b1111111 P
0'
1!
#4460000
0!
#4470000
b10 J
1!
#4480000
0!
#4490000
b11 J
1!
#4500000
0!
1%
#4510000
1M
1K
1)
0*
b100 J
1!
#4520000
0!
#4530000
1N
b0 J
0K
0)
0/
1!
#4540000
0!
#4550000
b1 J
1!
#4560000
0!
#4570000
b10 J
1!
#4580000
0!
#4590000
b11 J
1!
#4600000
0!
0%
#4610000
0M
1L
1(
1*
b100 J
1!
#4620000
0!
#4630000
b11111111 Q
b111 D
0N
b0 J
0L
0(
1!
#4640000
0!
#4650000
b1 J
b11111111 &
b11111111 :
b11111111 B
b11111111 P
1'
1!
#4660000
0!
#4670000
b10 J
1!
#4680000
0!
#4690000
b11 J
1!
#4700000
0!
1%
#4710000
1M
1K
1)
0*
b100 J
1!
#4720000
0!
#4730000
1N
b0 J
0K
0)
1/
1!
#4740000
0!
#4750000
b1 J
1!
#4760000
0!
#4770000
b10 J
1!
#4780000
0!
#4790000
b11 J
1!
#4800000
0!
0%
#4810000
0M
1L
1(
1*
b100 J
1!
#4820000
0!
#4830000
19
b1000 D
0N
b0 J
0L
0(
1!
#4840000
0!
#4850000
b1 J
b1111111 4
b1111111 ;
b1111111 A
1!
#4860000
0!
#4870000
bx 0
bx C
bx O
b10 J
1!
#4880000
0!
#4890000
b11 J
1!
#4900000
0!
1%
#4910000
1M
1K
1)
0*
b100 J
1!
#4920000
0!
#4930000
15
09
1N
b0 J
0K
0)
b1001 D
1!
#4940000
0!
#4950000
bx Q
b1 J
1!
#4960000
0!
#4970000
b10 J
bx &
bx :
bx B
bx P
x'
1!
#4980000
0!
#4990000
b11 J
1!
#5000000
0!
0%
#5010000
0M
1L
1(
1*
b100 J
1!
#5020000
0!
#5030000
05
b1010 D
0N
b0 J
0L
0(
1!
#5040000
0!
#5050000
b1 J
1!
#5060000
0!
#5070000
b10 J
1!
#5080000
0!
#5090000
b11 J
1!
#5100000
0!
1%
#5110000
1M
1K
1)
0*
b100 J
1!
#5120000
0!
#5130000
x.
16
1N
b0 J
0K
0)
b1011 D
x/
1!
#5140000
0!
#5150000
b1 J
1!
#5160000
0!
#5170000
b10 J
1!
#5180000
0!
#5190000
b11 J
1!
#5200000
0!
0%
#5210000
0M
1L
1(
1*
b100 J
1!
#5220000
0!
#5230000
bx1 Q
b1100 D
0N
b0 J
0L
0(
1!
#5240000
0!
#5250000
b1 J
bx1 &
bx1 :
bx1 B
bx1 P
1!
#5260000
0!
#5270000
b10 J
1!
#5280000
0!
#5290000
b11 J
1!
#5300000
0!
1%
#5310000
1M
1K
1)
0*
b100 J
1!
#5320000
0!
#5330000
1N
b0 J
0K
0)
1!
#5340000
0!
#5350000
b1 J
1!
#5360000
0!
#5370000
b10 J
1!
#5380000
0!
#5390000
b11 J
1!
#5400000
0!
0%
#5410000
0M
1L
1(
1*
b100 J
1!
#5420000
0!
#5430000
bx11 Q
b1101 D
0N
b0 J
0L
0(
1!
#5440000
0!
#5450000
b1 J
bx11 &
bx11 :
bx11 B
bx11 P
1!
#5460000
0!
#5470000
b10 J
1!
#5480000
0!
#5490000
b11 J
1!
#5500000
0!
1%
#5510000
1M
1K
1)
0*
b100 J
1!
#5520000
0!
#5530000
1N
b0 J
0K
0)
1!
#5540000
0!
#5550000
b1 J
1!
#5560000
0!
#5570000
b10 J
1!
#5580000
0!
#5590000
b11 J
1!
#5600000
0!
0%
#5610000
0M
1L
1(
1*
b100 J
1!
#5620000
0!
#5630000
bx111 Q
b1110 D
0N
b0 J
0L
0(
1!
#5640000
0!
#5650000
b1 J
bx111 &
bx111 :
bx111 B
bx111 P
1!
#5660000
0!
#5670000
b10 J
1!
#5680000
0!
#5690000
b11 J
1!
#5700000
0!
1%
#5710000
1M
1K
1)
0*
b100 J
1!
#5720000
0!
#5730000
1N
b0 J
0K
0)
1!
#5740000
0!
#5750000
b1 J
1!
#5760000
0!
#5770000
b10 J
1!
#5780000
0!
#5790000
b11 J
1!
#5800000
0!
0%
#5810000
0M
1L
1(
1*
b100 J
1!
#5820000
0!
#5830000
bx1111 Q
b1111 D
0N
b0 J
0L
0(
1!
#5840000
0!
#5850000
b1 J
bx1111 &
bx1111 :
bx1111 B
bx1111 P
1!
#5860000
0!
#5870000
b10 J
1!
#5880000
0!
#5890000
b11 J
1!
#5900000
0!
1%
#5910000
1M
1K
1)
0*
b100 J
1!
#5920000
0!
#5930000
1N
b0 J
0K
0)
1!
#5940000
0!
#5950000
b1 J
1!
#5960000
0!
#5970000
b10 J
1!
#5980000
0!
#5990000
b11 J
1!
#6000000
0!
0%
#6010000
0M
1L
1(
1*
b100 J
1!
#6020000
0!
#6030000
bx11111 Q
b10000 D
0N
b0 J
0L
0(
1!
#6040000
0!
#6050000
b1 J
bx11111 &
bx11111 :
bx11111 B
bx11111 P
1!
#6060000
0!
#6070000
b10 J
1!
#6080000
0!
#6090000
b11 J
1!
#6100000
0!
1%
#6110000
1M
1K
1)
0*
b100 J
1!
#6120000
0!
#6130000
1N
b0 J
0K
0)
1!
#6140000
0!
#6150000
b1 J
1!
#6160000
0!
#6170000
b10 J
1!
#6180000
0!
#6190000
b11 J
1!
#6200000
0!
0%
#6210000
0M
1L
1(
1*
b100 J
1!
#6220000
0!
#6230000
bx111111 Q
b10001 D
0N
b0 J
0L
0(
1!
#6240000
0!
#6250000
b1 J
bx111111 &
bx111111 :
bx111111 B
bx111111 P
1!
#6260000
0!
#6270000
b10 J
1!
#6280000
0!
#6290000
b11 J
1!
#6300000
0!
1%
#6310000
1M
1K
1)
0*
b100 J
1!
#6320000
0!
#6330000
1N
b0 J
0K
0)
1!
#6340000
0!
#6350000
b1 J
1!
#6360000
0!
#6370000
b10 J
1!
#6380000
0!
#6390000
b11 J
1!
#6400000
0!
0%
#6410000
0M
1L
1(
1*
b100 J
1!
#6420000
0!
#6430000
bx1111111 Q
b10010 D
0N
b0 J
0L
0(
1!
#6440000
0!
#6450000
b1 J
bx1111111 &
bx1111111 :
bx1111111 B
bx1111111 P
1!
#6460000
0!
#6470000
b10 J
1!
#6480000
0!
#6490000
b11 J
1!
#6500000
0!
1%
#6510000
1M
1K
1)
0*
b100 J
1!
#6520000
0!
#6530000
1N
b0 J
0K
0)
1!
#6540000
0!
#6550000
b1 J
1!
#6560000
0!
#6570000
b10 J
1!
#6580000
0!
#6590000
b11 J
1!
#6600000
0!
0%
#6610000
0M
1L
1(
1*
b100 J
1!
#6620000
0!
#6630000
b11111111 Q
b10011 D
0N
b0 J
0L
0(
1!
#6640000
0!
#6650000
b1 J
b11111111 &
b11111111 :
b11111111 B
b11111111 P
1'
1!
#6660000
0!
#6670000
b10 J
1!
#6680000
0!
#6690000
b11 J
1!
#6700000
0!
1%
#6710000
1M
1K
1)
0*
b100 J
1!
#6720000
0!
#6730000
1.
1N
b0 J
0K
0)
1/
1!
#6740000
0!
#6750000
b1 J
1!
#6760000
0!
#6770000
b10 J
1!
#6780000
0!
#6790000
b11 J
1!
#6800000
0!
0%
0$
#6810000
0H
0M
1L
1(
1*
b100 J
1!
#6820000
0!
#6830000
0.
06
b10 D
0N
b0 J
0L
0(
0I
1!
#6840000
0!
#6850000
b1 E
b1 J
1!
#6860000
0!
#6870000
b10 J
b10 E
1!
#6880000
0!
#6890000
b11 E
b11 J
1!
#6900000
0!
1%
#6910000
1M
1K
1)
0*
b100 J
1F
1,
0-
b100 E
1!
#6920000
0!
#6930000
b0 E
0F
0,
1N
b0 J
0K
0)
1!
#6940000
0!
#6950000
b1 J
1!
#6960000
0!
#6970000
b10 J
1!
#6980000
0!
#6990000
b11 J
1!
#7000000
0!
0%
#7010000
0M
1L
1(
1*
b100 J
1!
#7020000
0!
#7030000
b11111110 Q
b11 D
0N
b0 J
0L
0(
1!
#7040000
0!
#7050000
b1 J
b11111110 &
b11111110 :
b11111110 B
b11111110 P
1!
#7060000
0!
#7070000
b10 J
1!
#7080000
0!
#7090000
b11 J
1!
#7100000
0!
1%
#7110000
1M
1K
1)
0*
b100 J
1!
#7120000
0!
#7130000
1N
b0 J
0K
0)
1!
#7140000
0!
#7150000
b1 J
1!
#7160000
0!
#7170000
b10 J
1!
#7180000
0!
#7190000
b11 J
1!
#7200000
0!
0%
#7210000
0M
1L
1(
1*
b100 J
1!
#7220000
0!
#7230000
b11111100 Q
b100 D
0N
b0 J
0L
0(
1!
#7240000
0!
#7250000
b1 J
b11111100 &
b11111100 :
b11111100 B
b11111100 P
1!
#7260000
0!
#7270000
b10 J
1!
#7280000
0!
#7290000
b11 J
1!
#7300000
0!
1%
#7310000
1M
1K
1)
0*
b100 J
1!
#7320000
0!
#7330000
1N
b0 J
0K
0)
1!
#7340000
0!
#7350000
b1 J
1!
#7360000
0!
#7370000
b10 J
1!
#7380000
0!
#7390000
b11 J
1!
#7400000
0!
0%
1$
#7410000
1H
0M
1L
1(
1*
b100 J
1!
#7420000
0!
#7430000
b11111000 Q
b101 D
0N
b0 J
0L
0(
1I
1!
#7440000
0!
#7450000
b1 E
b1 J
b11111000 &
b11111000 :
b11111000 B
b11111000 P
1!
#7460000
0!
#7470000
b10 J
b10 E
1!
#7480000
0!
#7490000
b11 E
b11 J
1!
#7500000
0!
1%
#7510000
1M
1K
1)
0*
b100 J
1G
1+
1-
b100 E
1!
#7520000
0!
#7530000
b0 E
0G
0+
1N
b0 J
0K
0)
1!
#7540000
0!
#7550000
b1 J
1!
#7560000
0!
#7570000
b10 J
1!
#7580000
0!
#7590000
b11 J
1!
#7600000
0!
0%
0$
#7610000
0H
0M
1L
1(
1*
b100 J
1!
#7620000
0!
#7630000
b11110001 Q
b110 D
0N
b0 J
0L
0(
0I
1!
#7640000
0!
#7650000
b1 E
b1 J
b11110001 &
b11110001 :
b11110001 B
b11110001 P
1!
#7660000
0!
#7670000
b10 J
b10 E
1!
#7680000
0!
#7690000
b11 E
b11 J
1!
#7700000
0!
1%
#7710000
1M
1K
1)
0*
b100 J
1F
1,
0-
b100 E
1!
#7720000
0!
#7730000
b0 E
0F
0,
1N
b0 J
0K
0)
1!
#7740000
0!
#7750000
b1 J
1!
#7760000
0!
#7770000
b10 J
1!
#7780000
0!
#7790000
b11 J
1!
#7800000
0!
0%
#7810000
0M
1L
1(
1*
b100 J
1!
#7820000
0!
#7830000
b11100010 Q
b111 D
0N
b0 J
0L
0(
1!
#7840000
0!
#7850000
b1 J
b11100010 &
b11100010 :
b11100010 B
b11100010 P
1!
#7860000
0!
#7870000
b10 J
1!
#7880000
0!
#7890000
b11 J
1!
#7900000
0!
1%
#7910000
1M
1K
1)
0*
b100 J
1!
#7920000
0!
#7930000
1N
b0 J
0K
0)
1!
#7940000
0!
#7950000
b1 J
1!
#7960000
0!
#7970000
b10 J
1!
#7980000
0!
#7990000
b11 J
1!
#8000000
0!
0%
1$
#8010000
1H
0M
1L
1(
1*
b100 J
1!
#8020000
0!
#8030000
19
b11000100 Q
b1000 D
0N
b0 J
0L
0(
1I
1!
#8040000
0!
#8050000
b1 E
b1 J
b11000100 &
b11000100 :
b11000100 B
b11000100 P
b1100010 4
b1100010 ;
b1100010 A
1!
#8060000
0!
#8070000
b1000100 4
b1000100 ;
b1000100 A
b10 J
b10 E
1!
#8080000
0!
